\relax 
\@writefile{toc}{\contentsline {section}{\numberline {0.2}What does it look like to work with us?}{3}}
\@writefile{toc}{\contentsline {section}{\numberline {0.3}Work Benefits}{4}}
\@setckpt{benefits}{
\setcounter{page}{5}
\setcounter{equation}{0}
\setcounter{enumi}{0}
\setcounter{enumii}{0}
\setcounter{enumiii}{0}
\setcounter{enumiv}{0}
\setcounter{footnote}{0}
\setcounter{mpfootnote}{0}
\setcounter{part}{0}
\setcounter{chapter}{0}
\setcounter{section}{3}
\setcounter{subsection}{0}
\setcounter{subsubsection}{0}
\setcounter{paragraph}{0}
\setcounter{subparagraph}{0}
\setcounter{figure}{1}
\setcounter{table}{1}
\setcounter{float@type}{4}
}
