\relax 
\@writefile{lot}{\contentsline {table}{\numberline {1}{\ignorespaces Brogrammers}}{1}}
\@input{introduction.aux}
\babel@aux{english}{}
\@input{benefits.aux}
\@input{internships.aux}
\@input{computer_science.aux}
\@input{data_science.aux}
\@input{software.aux}
\@input{info_systems.aux}
\@input{conclusion.aux}
\@input{bibliography.aux}
