\BOOKMARK [2][]{Outline0.1}{Introduction}{}% 1
\BOOKMARK [2][]{Outline0.2}{Work Environment}{}% 2
\BOOKMARK [2][]{Outline0.3}{Benefits}{}% 3
\BOOKMARK [2][]{Outline0.4}{Amazon Internship Opportunities in Australia}{}% 4
\BOOKMARK [2][]{Outline0.5}{Computer Science}{}% 5
\BOOKMARK [2][]{Outline0.6}{Computational Data}{}% 6
\BOOKMARK [2][]{Outline0.7}{Software Development}{}% 7
\BOOKMARK [2][]{Outline0.8}{Information Systems}{}% 8
