\relax 
\@writefile{toc}{\contentsline {section}{\numberline {0.4}Internship Opportunities in Australia}{5}}
\@writefile{lof}{\contentsline {figure}{\numberline {2}{\ignorespaces 2016 Internship Team in Seattle}}{5}}
\@writefile{lof}{\contentsline {figure}{\numberline {3}{\ignorespaces Napendra Singh's Experience as an Intern}}{6}}
\@setckpt{internships}{
\setcounter{page}{7}
\setcounter{equation}{0}
\setcounter{enumi}{0}
\setcounter{enumii}{0}
\setcounter{enumiii}{0}
\setcounter{enumiv}{0}
\setcounter{footnote}{0}
\setcounter{mpfootnote}{0}
\setcounter{part}{0}
\setcounter{chapter}{0}
\setcounter{section}{4}
\setcounter{subsection}{0}
\setcounter{subsubsection}{0}
\setcounter{paragraph}{0}
\setcounter{subparagraph}{0}
\setcounter{figure}{3}
\setcounter{table}{1}
\setcounter{float@type}{4}
}
