\relax 
\@writefile{toc}{\contentsline {section}{\numberline {0.1}Who Are We?}{2}}
\@writefile{toc}{\contentsline {subsection}{\numberline {0.1.1}Why do we want IT students?}{2}}
\@writefile{lof}{\contentsline {figure}{\numberline {1}{\ignorespaces Amazon Seattle Headquarters}}{2}}
\@setckpt{introduction}{
\setcounter{page}{3}
\setcounter{equation}{0}
\setcounter{enumi}{0}
\setcounter{enumii}{0}
\setcounter{enumiii}{0}
\setcounter{enumiv}{0}
\setcounter{footnote}{0}
\setcounter{mpfootnote}{0}
\setcounter{part}{0}
\setcounter{chapter}{0}
\setcounter{section}{1}
\setcounter{subsection}{1}
\setcounter{subsubsection}{0}
\setcounter{paragraph}{0}
\setcounter{subparagraph}{0}
\setcounter{figure}{1}
\setcounter{table}{1}
\setcounter{float@type}{4}
}
